<?xml version="1.0" encoding="UTF-8"?>
<svg xmlns="http://www.w3.org/2000/svg" xmlns:xlink="http://www.w3.org/1999/xlink" width="1620pt" height="1619.99993pt" viewBox="0 0 1620 1619.99993" version="1.2">
<defs>
<clipPath id="clip1">
  <path d="M 239 157 L 1357 157 L 1357 1528 L 239 1528 Z M 239 157 "/>
</clipPath>
<clipPath id="clip2">
  <path d="M 154.628906 228.960938 L 1247.34375 56.457031 L 1457.976562 1390.683594 L 365.257812 1563.1875 Z M 154.628906 228.960938 "/>
</clipPath>
<clipPath id="clip3">
  <path d="M 154.628906 228.960938 L 1247.34375 56.457031 L 1457.976562 1390.683594 L 365.257812 1563.1875 Z M 154.628906 228.960938 "/>
</clipPath>
<clipPath id="clip4">
  <path d="M 154.628906 228.960938 L 1247.378906 56.449219 L 1457.957031 1390.328125 L 365.203125 1562.839844 Z M 154.628906 228.960938 "/>
</clipPath>
<clipPath id="clip5">
  <path d="M 225 144 L 1370 144 L 1370 1543 L 225 1543 Z M 225 144 "/>
</clipPath>
<clipPath id="clip6">
  <path d="M 154.628906 228.960938 L 1247.34375 56.457031 L 1457.976562 1390.683594 L 365.257812 1563.1875 Z M 154.628906 228.960938 "/>
</clipPath>
<clipPath id="clip7">
  <path d="M 154.628906 228.960938 L 1247.34375 56.457031 L 1457.976562 1390.683594 L 365.257812 1563.1875 Z M 154.628906 228.960938 "/>
</clipPath>
<clipPath id="clip8">
  <path d="M 154.628906 228.960938 L 1247.378906 56.449219 L 1457.957031 1390.328125 L 365.203125 1562.839844 Z M 154.628906 228.960938 "/>
</clipPath>
<clipPath id="clip9">
  <path d="M 362 281 L 988 281 L 988 907 L 362 907 Z M 362 281 "/>
</clipPath>
<clipPath id="clip10">
  <path d="M 154.628906 228.960938 L 1247.34375 56.457031 L 1457.976562 1390.683594 L 365.257812 1563.1875 Z M 154.628906 228.960938 "/>
</clipPath>
<clipPath id="clip11">
  <path d="M 154.628906 228.960938 L 1247.34375 56.457031 L 1457.976562 1390.683594 L 365.257812 1563.1875 Z M 154.628906 228.960938 "/>
</clipPath>
<clipPath id="clip12">
  <path d="M 154.628906 228.960938 L 1247.378906 56.449219 L 1457.957031 1390.328125 L 365.203125 1562.839844 Z M 154.628906 228.960938 "/>
</clipPath>
<clipPath id="clip13">
  <path d="M 356 275 L 995 275 L 995 913 L 356 913 Z M 356 275 "/>
</clipPath>
<clipPath id="clip14">
  <path d="M 154.628906 228.960938 L 1247.34375 56.457031 L 1457.976562 1390.683594 L 365.257812 1563.1875 Z M 154.628906 228.960938 "/>
</clipPath>
<clipPath id="clip15">
  <path d="M 154.628906 228.960938 L 1247.34375 56.457031 L 1457.976562 1390.683594 L 365.257812 1563.1875 Z M 154.628906 228.960938 "/>
</clipPath>
<clipPath id="clip16">
  <path d="M 154.628906 228.960938 L 1247.378906 56.449219 L 1457.957031 1390.328125 L 365.203125 1562.839844 Z M 154.628906 228.960938 "/>
</clipPath>
<clipPath id="clip17">
  <path d="M 504 423 L 846 423 L 846 765 L 504 765 Z M 504 423 "/>
</clipPath>
<clipPath id="clip18">
  <path d="M 154.628906 228.960938 L 1247.34375 56.457031 L 1457.976562 1390.683594 L 365.257812 1563.1875 Z M 154.628906 228.960938 "/>
</clipPath>
<clipPath id="clip19">
  <path d="M 154.628906 228.960938 L 1247.34375 56.457031 L 1457.976562 1390.683594 L 365.257812 1563.1875 Z M 154.628906 228.960938 "/>
</clipPath>
<clipPath id="clip20">
  <path d="M 154.628906 228.960938 L 1247.378906 56.449219 L 1457.957031 1390.328125 L 365.203125 1562.839844 Z M 154.628906 228.960938 "/>
</clipPath>
<clipPath id="clip21">
  <path d="M 497 416 L 853 416 L 853 772 L 497 772 Z M 497 416 "/>
</clipPath>
<clipPath id="clip22">
  <path d="M 154.628906 228.960938 L 1247.34375 56.457031 L 1457.976562 1390.683594 L 365.257812 1563.1875 Z M 154.628906 228.960938 "/>
</clipPath>
<clipPath id="clip23">
  <path d="M 154.628906 228.960938 L 1247.34375 56.457031 L 1457.976562 1390.683594 L 365.257812 1563.1875 Z M 154.628906 228.960938 "/>
</clipPath>
<clipPath id="clip24">
  <path d="M 154.628906 228.960938 L 1247.378906 56.449219 L 1457.957031 1390.328125 L 365.203125 1562.839844 Z M 154.628906 228.960938 "/>
</clipPath>
</defs>
<g id="surface1">
<g clip-path="url(#clip1)" clip-rule="nonzero">
<g clip-path="url(#clip2)" clip-rule="nonzero">
<g clip-path="url(#clip3)" clip-rule="nonzero">
<g clip-path="url(#clip4)" clip-rule="nonzero">
<path style=" stroke:none;fill-rule:nonzero;fill:rgb(100%,100%,100%);fill-opacity:1;" d="M 925.484375 1461.148438 L 503.226562 1527.808594 C 510.945312 1434.679688 500.429688 1331.527344 487.457031 1249.25 C 473.359375 1159.953125 456.324219 1095.277344 456.28125 1095.125 C 455.925781 1093.769531 455.132812 1092.539062 454.039062 1091.652344 C 345.402344 1002.667969 268.726562 865.632812 246.160156 722.457031 C 228.390625 609.78125 243.988281 493.476562 303.195312 393.371094 C 344.550781 323.457031 394.761719 272.089844 451.734375 235.398438 C 508.710938 198.707031 572.515625 176.679688 641.085938 165.855469 C 689.78125 158.167969 740.882812 156.128906 793.535156 158.554688 C 865.460938 161.816406 938.996094 179.191406 1007.007812 203.820312 L 1007.101562 203.859375 C 1009.550781 204.742188 1055.554688 222.019531 1106.128906 260.457031 C 1131.410156 279.6875 1157.839844 304.183594 1180.621094 334.507812 C 1203.386719 364.835938 1222.515625 400.972656 1233.324219 443.640625 L 1233.398438 443.875 C 1233.398438 443.875 1233.546875 444.382812 1233.824219 445.34375 C 1235.773438 452.210938 1243.988281 482.121094 1249.09375 514.460938 C 1251.765625 531.386719 1253.574219 548.996094 1253.242188 564.105469 C 1253.078125 571.660156 1252.371094 578.578125 1251.066406 584.390625 C 1249.777344 590.199219 1247.847656 594.859375 1245.527344 598.046875 L 1245.300781 598.382812 C 1244.5 599.566406 1237.566406 611.75 1241.515625 636.550781 C 1244.824219 657.394531 1255.585938 687.113281 1283.367188 727.441406 L 1283.59375 727.757812 C 1283.613281 727.769531 1286.933594 732.023438 1292.109375 738.664062 C 1307.613281 758.554688 1339.753906 799.761719 1348.621094 811.128906 C 1351.261719 814.449219 1354.507812 821.164062 1355.714844 829.03125 C 1357.1875 838.566406 1356.066406 849.691406 1348.960938 860.546875 C 1341.851562 871.382812 1328.410156 882.355469 1303.941406 890.5 C 1301.691406 891.226562 1298.261719 891.855469 1294.5 892.714844 C 1291.65625 893.359375 1288.589844 894.175781 1285.515625 895.472656 C 1283.199219 896.457031 1280.875 897.703125 1278.71875 899.457031 C 1275.457031 902.050781 1272.6875 905.855469 1271.277344 910.539062 C 1269.863281 915.222656 1269.660156 920.648438 1270.65625 926.960938 C 1271.941406 934.976562 1275.09375 944.542969 1280.664062 956.605469 C 1280.957031 957.230469 1281.324219 957.769531 1281.777344 958.28125 C 1282.207031 958.777344 1285.164062 962.648438 1286.058594 968.535156 C 1286.75 973.011719 1286.464844 978.699219 1282.910156 985.921875 C 1279.34375 993.152344 1272.316406 1001.949219 1259.183594 1011.726562 C 1256.800781 1013.511719 1255.871094 1016.671875 1256.925781 1019.449219 C 1257.964844 1022.230469 1260.75 1023.996094 1263.710938 1023.757812 C 1264.289062 1023.71875 1268.804688 1023.730469 1272.898438 1025.851562 C 1274.949219 1026.902344 1276.953125 1028.402344 1278.683594 1030.757812 C 1280.410156 1033.109375 1281.9375 1036.414062 1282.71875 1041.347656 C 1283.601562 1046.835938 1283.484375 1054.363281 1281.421875 1064.421875 C 1279.765625 1066.886719 1276.289062 1072.582031 1273.292969 1081.21875 C 1269.34375 1092.632812 1266.289062 1109.246094 1269.566406 1129.902344 C 1271.164062 1140.035156 1274.273438 1151.128906 1279.472656 1163.054688 C 1279.53125 1163.308594 1279.582031 1163.621094 1279.644531 1164.015625 C 1280.480469 1169.101562 1282.167969 1185.707031 1275.765625 1201.457031 C 1272.566406 1209.351562 1267.480469 1217.046875 1259.195312 1223.554688 C 1250.886719 1230.050781 1239.261719 1235.410156 1222.617188 1238.039062 C 1214.546875 1239.3125 1205.3125 1239.941406 1194.761719 1239.703125 L 1194.335938 1239.699219 C 1194.335938 1239.699219 1193.707031 1239.730469 1192.445312 1239.769531 C 1183.042969 1240.109375 1139.695312 1241.308594 1089.640625 1238.261719 C 1064.617188 1236.75 1037.921875 1234.15625 1013.011719 1229.910156 C 988.105469 1225.660156 964.988281 1219.699219 947.300781 1211.703125 C 946.105469 1211.152344 944.769531 1210.972656 943.496094 1211.175781 C 942.859375 1211.277344 942.222656 1211.484375 941.632812 1211.769531 C 939.847656 1212.632812 938.527344 1214.234375 938.039062 1216.164062 C 937.902344 1216.75 916.917969 1300.949219 925.484375 1461.148438 "/>
</g>
</g>
</g>
</g>
<g clip-path="url(#clip5)" clip-rule="nonzero">
<g clip-path="url(#clip6)" clip-rule="nonzero">
<g clip-path="url(#clip7)" clip-rule="nonzero">
<g clip-path="url(#clip8)" clip-rule="nonzero">
<path style=" stroke:none;fill-rule:nonzero;fill:rgb(13.729858%,12.159729%,12.548828%);fill-opacity:1;" d="M 933.542969 1473.414062 L 496.84375 1542.355469 C 494.777344 1542.683594 492.71875 1542.054688 491.207031 1540.621094 C 489.691406 1539.199219 488.933594 1537.1875 489.136719 1535.109375 C 498.132812 1441.695312 487.542969 1335.5 474.238281 1251.335938 C 461.992188 1173.773438 447.484375 1114.832031 444.078125 1101.421875 C 444 1101.136719 443.9375 1100.863281 443.878906 1100.609375 C 333.347656 1009.242188 255.980469 870.253906 232.941406 724.542969 C 214.753906 609.324219 230.644531 489.75 291.675781 386.566406 C 333.957031 315.027344 385.722656 261.988281 444.492188 224.148438 C 503.242188 186.3125 568.914062 163.707031 638.96875 152.648438 C 638.984375 152.644531 639 152.644531 639 152.644531 C 688.761719 144.789062 740.757812 142.730469 794.140625 145.183594 C 867.792969 148.558594 942.566406 166.269531 1011.566406 191.234375 C 1011.886719 191.363281 1038.382812 200.964844 1073.875 222.425781 C 1109.371094 243.902344 1153.917969 277.226562 1190.195312 324.972656 C 1214.339844 356.777344 1234.804688 395.011719 1246.265625 440.242188 C 1246.949219 442.546875 1256.511719 475.648438 1262.3125 512.375 C 1264.375 525.445312 1265.960938 538.964844 1266.472656 551.808594 C 1266.984375 564.667969 1266.46875 576.808594 1264.121094 587.316406 C 1262.578125 594.171875 1260.257812 600.375 1256.59375 605.554688 C 1256.515625 605.726562 1256.367188 606.03125 1256.175781 606.484375 C 1255.761719 607.449219 1255.207031 609.054688 1254.710938 611.386719 C 1253.714844 616.042969 1253.03125 623.554688 1254.753906 634.460938 C 1257.621094 652.75 1267.40625 680.628906 1294.28125 719.6875 C 1297.003906 723.1875 1347.675781 788.164062 1359.175781 802.902344 C 1363.476562 808.464844 1367.296875 816.800781 1368.933594 826.945312 C 1370.867188 839.085938 1369.332031 853.945312 1360.15625 867.875 C 1350.996094 881.839844 1334.570312 894.445312 1308.082031 903.210938 L 1308.015625 903.238281 C 1303.996094 904.492188 1299.933594 905.117188 1296.253906 906.050781 C 1292.5625 906.929688 1289.429688 908.09375 1287.445312 909.609375 C 1286.125 910.609375 1285.214844 911.671875 1284.488281 913.320312 C 1283.558594 915.476562 1282.957031 919.042969 1283.875 924.875 C 1284.832031 930.929688 1287.4375 939.28125 1292.46875 950.246094 C 1294.125 952.363281 1297.914062 957.921875 1299.277344 966.449219 C 1300.410156 973.394531 1299.675781 982.273438 1294.910156 991.859375 C 1291.5 998.742188 1286.097656 1005.996094 1278.035156 1013.472656 C 1281.730469 1015.199219 1285.59375 1017.886719 1288.839844 1022.011719 C 1292.253906 1026.320312 1294.820312 1032.070312 1295.9375 1039.261719 C 1297.175781 1047.105469 1296.796875 1056.667969 1294.226562 1068.550781 C 1294.011719 1069.539062 1293.605469 1070.429688 1292.992188 1071.234375 L 1292.902344 1071.335938 L 1292.488281 1071.949219 C 1292.097656 1072.503906 1291.535156 1073.402344 1290.84375 1074.605469 C 1289.464844 1077.042969 1287.613281 1080.738281 1285.941406 1085.570312 C 1282.601562 1095.265625 1279.894531 1109.515625 1282.785156 1127.816406 C 1284.234375 1136.984375 1287.09375 1147.164062 1292.03125 1158.339844 C 1292.226562 1158.785156 1292.355469 1159.167969 1292.449219 1159.648438 C 1292.484375 1159.75 1292.644531 1160.550781 1292.863281 1161.929688 C 1293.429688 1165.523438 1294.308594 1172.984375 1293.628906 1182.3125 C 1292.929688 1191.625 1290.675781 1202.839844 1284.738281 1213.722656 C 1280.785156 1220.976562 1275.160156 1228.035156 1267.4375 1234.085938 C 1257.15625 1242.144531 1243.191406 1248.332031 1224.753906 1251.242188 C 1224.738281 1251.246094 1224.722656 1251.246094 1224.703125 1251.25 C 1215.789062 1252.65625 1205.835938 1253.3125 1194.6875 1253.078125 C 1192.195312 1253.171875 1168.800781 1254.046875 1136.214844 1253.460938 C 1101.78125 1252.8125 1057.128906 1250.554688 1015.898438 1243.945312 C 991.679688 1240.046875 968.640625 1234.675781 949.378906 1227.085938 C 948.957031 1229.230469 948.46875 1231.828125 947.925781 1234.875 C 946.097656 1245.304688 943.734375 1260.945312 941.664062 1281.6875 C 937.503906 1323.175781 934.507812 1385.09375 939.179688 1466.425781 C 939.382812 1469.847656 936.933594 1472.878906 933.542969 1473.414062 M 932.5 1466.808594 L 931.457031 1460.203125 L 932.5 1466.808594 M 503.226562 1527.808594 L 925.484375 1461.148438 C 916.917969 1300.949219 937.902344 1216.75 938.039062 1216.164062 C 938.527344 1214.234375 939.847656 1212.632812 941.632812 1211.769531 C 942.222656 1211.484375 942.859375 1211.277344 943.496094 1211.175781 C 944.769531 1210.972656 946.105469 1211.152344 947.300781 1211.703125 C 964.988281 1219.699219 988.105469 1225.660156 1013.011719 1229.910156 C 1037.921875 1234.15625 1064.617188 1236.75 1089.640625 1238.261719 C 1139.695312 1241.308594 1183.042969 1240.109375 1192.445312 1239.769531 C 1193.707031 1239.730469 1194.335938 1239.699219 1194.335938 1239.699219 L 1194.761719 1239.703125 C 1205.3125 1239.941406 1214.546875 1239.3125 1222.617188 1238.039062 C 1239.261719 1235.410156 1250.886719 1230.050781 1259.195312 1223.554688 C 1267.480469 1217.046875 1272.566406 1209.351562 1275.765625 1201.457031 C 1282.167969 1185.707031 1280.480469 1169.101562 1279.644531 1164.015625 C 1279.582031 1163.621094 1279.53125 1163.308594 1279.472656 1163.054688 C 1274.273438 1151.128906 1271.164062 1140.035156 1269.566406 1129.902344 C 1266.289062 1109.246094 1269.34375 1092.632812 1273.292969 1081.21875 C 1276.289062 1072.582031 1279.765625 1066.886719 1281.421875 1064.421875 C 1283.484375 1054.363281 1283.601562 1046.835938 1282.71875 1041.347656 C 1281.9375 1036.414062 1280.410156 1033.109375 1278.683594 1030.757812 C 1276.953125 1028.402344 1274.949219 1026.902344 1272.898438 1025.851562 C 1268.804688 1023.730469 1264.289062 1023.71875 1263.710938 1023.757812 C 1260.75 1023.996094 1257.964844 1022.230469 1256.925781 1019.449219 C 1255.871094 1016.671875 1256.800781 1013.511719 1259.183594 1011.726562 C 1272.316406 1001.949219 1279.34375 993.152344 1282.910156 985.921875 C 1286.464844 978.699219 1286.75 973.011719 1286.058594 968.535156 C 1285.164062 962.648438 1282.207031 958.777344 1281.777344 958.28125 C 1281.324219 957.769531 1280.957031 957.230469 1280.664062 956.605469 C 1275.09375 944.542969 1271.941406 934.976562 1270.65625 926.960938 C 1269.660156 920.648438 1269.863281 915.222656 1271.277344 910.539062 C 1272.6875 905.855469 1275.457031 902.050781 1278.71875 899.457031 C 1280.875 897.703125 1283.199219 896.457031 1285.515625 895.472656 C 1288.589844 894.175781 1291.65625 893.359375 1294.5 892.714844 C 1298.261719 891.855469 1301.691406 891.226562 1303.941406 890.5 C 1328.410156 882.355469 1341.851562 871.382812 1348.960938 860.546875 C 1356.066406 849.691406 1357.1875 838.566406 1355.714844 829.03125 C 1354.507812 821.164062 1351.261719 814.449219 1348.621094 811.128906 C 1339.753906 799.761719 1307.613281 758.554688 1292.109375 738.664062 C 1286.933594 732.023438 1283.613281 727.769531 1283.59375 727.757812 L 1283.367188 727.441406 C 1255.585938 687.113281 1244.824219 657.394531 1241.515625 636.550781 C 1237.566406 611.75 1244.5 599.566406 1245.300781 598.382812 L 1245.527344 598.046875 C 1247.847656 594.859375 1249.777344 590.199219 1251.066406 584.390625 C 1252.371094 578.578125 1253.078125 571.660156 1253.242188 564.105469 C 1253.574219 548.996094 1251.765625 531.386719 1249.09375 514.460938 C 1243.988281 482.121094 1235.773438 452.210938 1233.824219 445.34375 C 1233.546875 444.382812 1233.398438 443.875 1233.398438 443.875 L 1233.324219 443.640625 C 1222.515625 400.972656 1203.386719 364.835938 1180.621094 334.507812 C 1157.839844 304.183594 1131.410156 279.6875 1106.128906 260.457031 C 1055.554688 222.019531 1009.550781 204.742188 1007.101562 203.859375 L 1007.007812 203.820312 C 938.996094 179.191406 865.460938 161.816406 793.535156 158.554688 C 740.882812 156.128906 689.78125 158.167969 641.085938 165.855469 C 572.515625 176.679688 508.710938 198.707031 451.734375 235.398438 C 394.761719 272.089844 344.550781 323.457031 303.195312 393.371094 C 243.988281 493.476562 228.390625 609.78125 246.160156 722.457031 C 268.726562 865.632812 345.402344 1002.667969 454.039062 1091.652344 C 455.132812 1092.539062 455.925781 1093.769531 456.28125 1095.125 C 456.324219 1095.277344 473.359375 1159.953125 487.457031 1249.25 C 500.429688 1331.527344 510.945312 1434.679688 503.226562 1527.808594 "/>
</g>
</g>
</g>
</g>
<g clip-path="url(#clip9)" clip-rule="nonzero">
<g clip-path="url(#clip10)" clip-rule="nonzero">
<g clip-path="url(#clip11)" clip-rule="nonzero">
<g clip-path="url(#clip12)" clip-rule="nonzero">
<path style=" stroke:none;fill-rule:nonzero;fill:rgb(100%,100%,100%);fill-opacity:1;" d="M 643.199219 793.488281 C 532.902344 775.902344 457.761719 672.285156 475.378906 562.046875 C 492.976562 451.824219 596.667969 376.710938 706.945312 394.296875 C 817.257812 411.863281 892.363281 515.488281 874.761719 625.707031 C 857.164062 735.941406 753.476562 811.058594 643.199219 793.488281 Z M 942.949219 583.152344 L 912.773438 576.050781 C 910.847656 550.332031 904.800781 525.546875 895.136719 502.445312 L 918.878906 482.421875 C 942.460938 465.316406 947.714844 432.328125 930.621094 408.757812 C 913.527344 385.171875 880.535156 379.886719 856.929688 396.980469 L 830.503906 413.296875 C 811.53125 396.933594 789.859375 383.464844 765.996094 373.65625 L 768.636719 342.777344 C 773.230469 314 753.597656 286.96875 724.824219 282.378906 C 696.050781 277.789062 668.980469 297.398438 664.382812 326.160156 L 657.253906 356.320312 C 631.535156 358.230469 606.738281 364.296875 583.597656 373.945312 L 563.570312 350.21875 C 546.476562 326.648438 513.472656 321.402344 489.886719 338.507812 C 466.285156 355.597656 460.980469 388.59375 478.109375 412.175781 L 494.414062 438.570312 C 478.054688 457.53125 464.554688 479.199219 454.738281 503.050781 L 423.84375 500.433594 C 395.066406 495.84375 367.996094 515.4375 363.417969 544.210938 C 358.820312 572.972656 378.421875 600.042969 407.195312 604.613281 L 437.371094 611.734375 C 439.28125 637.457031 445.34375 662.222656 454.996094 685.363281 L 431.265625 705.363281 C 407.664062 722.453125 402.410156 755.441406 419.503906 779.03125 C 436.617188 802.617188 469.609375 807.878906 493.210938 790.773438 L 519.621094 774.472656 C 538.625 790.832031 560.28125 804.304688 584.148438 814.128906 L 581.523438 844.992188 C 576.925781 873.75 596.542969 900.785156 625.316406 905.375 C 654.105469 909.960938 681.160156 890.367188 685.757812 861.609375 L 692.871094 831.449219 C 718.605469 829.539062 743.402344 823.457031 766.542969 813.824219 L 786.570312 837.53125 C 803.679688 861.101562 836.667969 866.367188 860.257812 849.277344 C 883.859375 832.1875 889.148438 799.195312 872.054688 775.605469 L 855.714844 749.21875 C 872.101562 730.21875 885.570312 708.589844 895.402344 684.71875 L 926.304688 687.351562 C 955.078125 691.941406 982.144531 672.3125 986.722656 643.558594 C 991.335938 614.777344 971.722656 587.746094 942.949219 583.152344 "/>
</g>
</g>
</g>
</g>
<g clip-path="url(#clip13)" clip-rule="nonzero">
<g clip-path="url(#clip14)" clip-rule="nonzero">
<g clip-path="url(#clip15)" clip-rule="nonzero">
<g clip-path="url(#clip16)" clip-rule="nonzero">
<path style=" stroke:none;fill-rule:nonzero;fill:rgb(13.729858%,12.159729%,12.548828%);fill-opacity:1;" d="M 643.199219 793.488281 L 644.253906 786.867188 C 558.496094 773.21875 494.710938 705.75 481.875 624.4375 C 478.746094 604.621094 478.648438 583.992188 481.984375 563.117188 C 495.675781 477.40625 563.191406 413.644531 644.554688 400.796875 C 664.363281 397.671875 684.984375 397.554688 705.890625 400.902344 C 791.660156 414.546875 855.414062 482.023438 868.265625 563.332031 C 871.394531 583.148438 871.492188 603.761719 868.15625 624.652344 C 854.484375 710.359375 786.949219 774.125 705.589844 786.96875 C 685.777344 790.097656 665.136719 790.199219 644.253906 786.867188 L 643.199219 793.488281 L 642.140625 800.089844 C 664.433594 803.640625 686.484375 803.527344 707.675781 800.179688 C 794.628906 786.453125 866.734375 718.335938 881.367188 626.761719 C 884.941406 604.476562 884.828125 582.421875 881.484375 561.246094 C 867.765625 474.339844 799.621094 402.289062 708 387.679688 C 685.707031 384.128906 663.640625 384.246094 642.46875 387.585938 C 555.511719 401.316406 483.40625 469.433594 468.773438 561.007812 C 465.199219 583.292969 465.3125 605.347656 468.65625 626.523438 C 482.371094 713.410156 550.515625 785.464844 642.140625 800.089844 Z M 942.949219 583.152344 L 944.480469 576.652344 L 914.300781 569.535156 L 912.773438 576.050781 L 919.449219 575.546875 C 918.9375 568.855469 918.175781 562.222656 917.140625 555.667969 C 914.085938 536.316406 908.730469 517.609375 901.308594 499.863281 L 895.136719 502.445312 L 899.453125 507.542969 L 923.175781 487.527344 L 918.878906 482.421875 L 922.800781 487.832031 C 941.527344 474.261719 950.023438 451.765625 946.636719 430.402344 C 945.21875 421.441406 941.714844 412.648438 936.035156 404.835938 C 922.457031 386.085938 899.964844 377.597656 878.570312 380.972656 C 869.601562 382.390625 860.824219 385.890625 853.003906 391.570312 L 856.929688 396.980469 L 853.402344 391.292969 L 826.996094 407.609375 L 830.503906 413.296875 L 834.890625 408.234375 C 815.371094 391.410156 793.074219 377.5625 768.546875 367.472656 L 765.996094 373.65625 L 772.664062 374.226562 L 775.289062 343.347656 L 768.636719 342.777344 L 775.242188 343.832031 C 776.253906 337.5 776.210938 331.210938 775.261719 325.191406 C 771.355469 300.4375 751.960938 279.945312 725.882812 275.777344 C 719.546875 274.765625 713.253906 274.789062 707.214844 275.761719 C 682.460938 279.652344 661.953125 299.039062 657.773438 325.085938 L 664.382812 326.160156 L 657.875 324.613281 L 650.746094 354.773438 L 657.253906 356.320312 L 656.765625 349.644531 C 650.050781 350.140625 643.417969 350.925781 636.84375 351.960938 C 617.496094 355.015625 598.777344 360.371094 581.019531 367.773438 L 583.597656 373.945312 L 588.722656 369.625 L 568.695312 345.917969 L 563.570312 350.21875 L 569 346.292969 C 555.410156 327.582031 532.9375 319.105469 511.546875 322.5 C 502.578125 323.898438 493.78125 327.402344 485.949219 333.101562 C 467.203125 346.671875 458.703125 369.15625 462.078125 390.535156 C 463.492188 399.480469 466.996094 408.273438 472.695312 416.101562 L 478.109375 412.175781 L 472.417969 415.683594 L 488.722656 442.078125 L 494.414062 438.570312 L 489.347656 434.203125 C 472.527344 453.695312 458.652344 475.988281 448.550781 500.5 L 454.738281 503.050781 L 455.292969 496.386719 L 424.414062 493.769531 L 423.84375 500.433594 L 424.898438 493.832031 C 418.566406 492.824219 412.269531 492.847656 406.230469 493.800781 C 381.480469 497.707031 360.972656 517.09375 356.792969 543.160156 C 355.785156 549.488281 355.824219 555.777344 356.773438 561.796875 C 360.679688 586.535156 380.058594 607.046875 406.140625 611.234375 L 407.195312 604.613281 L 405.664062 611.132812 L 435.824219 618.238281 L 437.371094 611.734375 L 430.695312 612.222656 C 431.1875 618.917969 431.964844 625.527344 432.996094 632.066406 C 436.054688 651.433594 441.40625 670.140625 448.820312 687.925781 L 454.996094 685.363281 L 450.691406 680.242188 L 426.949219 700.246094 L 431.265625 705.363281 L 427.339844 699.9375 C 408.597656 713.527344 400.117188 736.003906 403.492188 757.386719 C 404.90625 766.332031 408.410156 775.121094 414.09375 782.96875 C 427.667969 801.683594 450.175781 810.171875 471.550781 806.78125 C 480.519531 805.363281 489.296875 801.863281 497.136719 796.199219 L 493.210938 790.773438 L 496.71875 796.460938 L 523.148438 780.175781 L 519.621094 774.472656 L 515.253906 779.554688 C 534.789062 796.355469 557.066406 810.1875 581.582031 820.316406 L 584.148438 814.128906 L 577.480469 813.558594 L 574.855469 844.421875 L 581.523438 844.992188 L 574.902344 843.9375 C 573.890625 850.269531 573.925781 856.539062 574.878906 862.558594 C 578.785156 887.3125 598.179688 907.804688 624.257812 911.976562 C 630.609375 912.984375 636.886719 912.960938 642.910156 912.011719 C 667.679688 908.101562 688.183594 888.714844 692.363281 862.648438 L 685.757812 861.609375 L 692.261719 863.140625 L 699.394531 832.996094 L 692.871094 831.449219 L 693.375 838.121094 C 700.054688 837.617188 706.671875 836.851562 713.210938 835.820312 C 732.59375 832.761719 751.328125 827.40625 769.121094 819.996094 L 766.542969 813.824219 L 761.421875 818.140625 L 781.445312 841.851562 L 786.570312 837.53125 L 781.15625 841.457031 C 794.730469 860.1875 817.21875 868.660156 838.613281 865.28125 C 847.566406 863.871094 856.363281 860.367188 864.179688 854.6875 C 882.9375 841.097656 891.421875 818.617188 888.042969 797.21875 C 886.632812 788.273438 883.128906 779.5 877.46875 771.683594 L 872.054688 775.605469 L 877.742188 772.082031 L 861.402344 745.695312 L 855.714844 749.21875 L 860.796875 753.582031 C 877.628906 734.050781 891.492188 711.800781 901.59375 687.269531 L 895.402344 684.71875 L 894.832031 691.386719 L 925.730469 694.019531 L 926.304688 687.351562 L 925.246094 693.953125 C 931.578125 694.964844 937.855469 694.925781 943.878906 693.972656 C 968.644531 690.0625 989.152344 670.660156 993.328125 644.613281 C 994.355469 638.261719 994.320312 631.992188 993.367188 625.953125 C 989.460938 601.21875 970.066406 580.722656 944.003906 576.550781 L 942.949219 583.152344 L 944.480469 576.652344 L 942.949219 583.152344 L 941.890625 589.757812 C 962.101562 592.964844 977.125 608.894531 980.148438 628.039062 C 980.882812 632.703125 980.910156 637.5625 980.117188 642.5 C 976.902344 662.703125 960.964844 677.738281 941.792969 680.761719 C 937.144531 681.496094 932.28125 681.523438 927.359375 680.75 L 926.875 680.6875 L 895.976562 678.070312 C 893.078125 677.820312 890.328125 679.492188 889.21875 682.1875 C 879.664062 705.363281 866.574219 726.382812 850.652344 744.851562 C 848.757812 747.054688 848.503906 750.25 850.027344 752.742188 L 866.363281 779.113281 L 866.621094 779.53125 C 871.039062 785.605469 873.734375 792.390625 874.824219 799.304688 C 877.425781 815.90625 870.882812 833.335938 856.332031 843.867188 C 850.234375 848.269531 843.464844 850.960938 836.53125 852.070312 C 819.933594 854.675781 802.511719 848.132812 791.984375 833.609375 L 791.671875 833.21875 L 771.648438 809.511719 C 769.78125 807.285156 766.660156 806.523438 763.980469 807.652344 C 747.148438 814.664062 729.441406 819.71875 711.125 822.609375 C 704.945312 823.585938 698.691406 824.308594 692.382812 824.792969 C 689.472656 825.003906 687.03125 827.082031 686.367188 829.921875 L 679.234375 860.066406 L 679.152344 860.554688 C 675.9375 880.738281 660 895.773438 640.824219 898.800781 C 636.160156 899.535156 631.3125 899.5625 626.371094 898.773438 C 606.160156 895.5625 591.121094 879.636719 588.097656 860.472656 C 587.359375 855.8125 587.335938 850.96875 588.128906 846.046875 L 588.175781 845.5625 L 590.800781 814.699219 C 591.046875 811.789062 589.382812 809.054688 586.683594 807.945312 C 563.511719 798.378906 542.464844 785.308594 523.992188 769.410156 C 521.785156 767.519531 518.589844 767.265625 516.113281 768.785156 L 489.703125 785.085938 L 489.285156 785.363281 C 483.175781 789.78125 476.402344 792.472656 469.464844 793.570312 C 452.871094 796.171875 435.449219 789.628906 424.9375 775.105469 C 420.515625 769.015625 417.804688 762.230469 416.710938 755.300781 C 414.109375 738.699219 420.65625 721.285156 435.191406 710.773438 L 435.582031 710.464844 L 459.308594 690.464844 C 461.550781 688.578125 462.296875 685.480469 461.183594 682.78125 C 454.152344 665.960938 449.105469 648.28125 446.214844 629.976562 C 445.242188 623.804688 444.5 617.554688 444.03125 611.230469 C 443.820312 608.335938 441.742188 605.878906 438.902344 605.214844 L 408.742188 598.113281 L 408.25 598.011719 C 388.039062 594.804688 373.019531 578.875 369.992188 559.710938 C 369.257812 555.050781 369.234375 550.207031 370.023438 545.265625 C 373.21875 525.070312 389.140625 510.039062 408.316406 507.011719 C 412.980469 506.273438 417.84375 506.246094 422.785156 507.035156 L 423.269531 507.101562 L 454.167969 509.714844 C 457.066406 509.964844 459.816406 508.277344 460.925781 505.597656 C 470.464844 482.425781 483.5625 461.371094 499.476562 442.9375 C 501.386719 440.730469 501.640625 437.535156 500.101562 435.0625 L 483.796875 408.652344 L 483.519531 408.238281 C 479.101562 402.148438 476.410156 395.378906 475.296875 388.449219 C 472.695312 371.863281 479.261719 354.449219 493.8125 343.917969 C 499.90625 339.5 506.695312 336.808594 513.632812 335.710938 C 530.226562 333.09375 547.644531 339.632812 558.160156 354.160156 L 558.464844 354.535156 L 578.476562 378.261719 C 580.363281 380.5 583.464844 381.246094 586.179688 380.113281 C 602.960938 373.109375 620.652344 368.058594 638.929688 365.171875 C 645.144531 364.191406 651.414062 363.46875 657.761719 362.996094 C 660.652344 362.765625 663.09375 360.6875 663.777344 357.847656 L 670.902344 327.6875 L 670.984375 327.195312 C 674.203125 307.011719 690.144531 291.996094 709.300781 288.972656 C 713.980469 288.234375 718.847656 288.207031 723.785156 288.976562 C 743.980469 292.191406 759.019531 308.117188 762.042969 327.277344 C 762.777344 331.941406 762.804688 336.785156 762.03125 341.71875 L 761.964844 342.207031 L 759.324219 373.089844 C 759.078125 375.984375 760.765625 378.734375 763.460938 379.839844 C 786.628906 389.371094 807.695312 402.460938 826.132812 418.359375 C 828.359375 420.285156 831.539062 420.523438 834.03125 418.984375 L 860.4375 402.667969 L 860.851562 402.390625 C 866.949219 397.988281 873.722656 395.296875 880.660156 394.203125 C 897.25 391.582031 914.675781 398.140625 925.207031 412.679688 C 929.628906 418.769531 932.320312 425.539062 933.417969 432.488281 C 936.035156 449.070312 929.46875 466.488281 914.933594 476.996094 L 914.558594 477.304688 L 890.816406 497.324219 C 888.59375 499.210938 887.828125 502.308594 888.960938 505.003906 C 895.96875 521.792969 901.035156 539.472656 903.921875 557.757812 C 904.898438 563.949219 905.625 570.21875 906.09375 576.542969 C 906.324219 579.449219 908.402344 581.890625 911.242188 582.554688 L 941.402344 589.675781 L 941.890625 589.757812 L 942.949219 583.152344 "/>
</g>
</g>
</g>
</g>
<g clip-path="url(#clip17)" clip-rule="nonzero">
<g clip-path="url(#clip18)" clip-rule="nonzero">
<g clip-path="url(#clip19)" clip-rule="nonzero">
<g clip-path="url(#clip20)" clip-rule="nonzero">
<path style=" stroke:none;fill-rule:nonzero;fill:rgb(100%,100%,100%);fill-opacity:1;" d="M 651.84375 739.300781 C 571.5 726.507812 516.746094 651 529.578125 570.695312 C 542.410156 490.390625 617.949219 435.660156 698.296875 448.46875 C 778.644531 461.277344 833.394531 536.765625 820.566406 617.074219 C 807.734375 697.378906 732.191406 752.109375 651.84375 739.300781 Z M 701.964844 425.550781 C 608.949219 410.722656 521.503906 474.085938 506.648438 567.035156 C 491.792969 660 555.164062 747.40625 648.179688 762.234375 C 741.191406 777.046875 828.636719 713.683594 843.492188 620.71875 C 858.347656 527.769531 794.980469 440.363281 701.964844 425.550781 "/>
</g>
</g>
</g>
</g>
<g clip-path="url(#clip21)" clip-rule="nonzero">
<g clip-path="url(#clip22)" clip-rule="nonzero">
<g clip-path="url(#clip23)" clip-rule="nonzero">
<g clip-path="url(#clip24)" clip-rule="nonzero">
<path style=" stroke:none;fill-rule:nonzero;fill:rgb(13.729858%,12.159729%,12.548828%);fill-opacity:1;" d="M 651.84375 739.300781 L 652.902344 732.699219 C 591.214844 722.886719 545.355469 674.324219 536.105469 615.839844 C 533.855469 601.597656 533.789062 586.761719 536.183594 571.75 C 546.011719 510.097656 594.605469 464.238281 653.109375 455.003906 C 667.363281 452.753906 682.203125 452.667969 697.242188 455.070312 C 758.929688 464.902344 804.789062 513.445312 814.039062 571.929688 C 816.285156 586.15625 816.347656 600.988281 813.960938 616.015625 C 804.109375 677.675781 755.535156 723.53125 697.015625 732.769531 C 682.761719 735.019531 667.921875 735.105469 652.902344 732.699219 L 651.84375 739.300781 L 650.789062 745.921875 C 667.21875 748.527344 683.488281 748.445312 699.101562 745.980469 C 763.214844 735.859375 816.375 685.628906 827.167969 618.109375 C 829.796875 601.6875 829.71875 585.445312 827.257812 569.84375 C 817.140625 505.765625 766.890625 452.640625 699.355469 441.867188 C 682.921875 439.242188 666.652344 439.324219 651.023438 441.789062 C 586.925781 451.910156 533.765625 502.140625 522.972656 569.640625 C 520.34375 586.066406 520.421875 602.324219 522.886719 617.925781 C 533 682.003906 583.230469 735.128906 650.789062 745.921875 Z M 701.964844 425.550781 L 703.019531 418.929688 C 684.09375 415.925781 665.375 416.023438 647.421875 418.859375 C 573.632812 430.488281 512.457031 488.296875 500.042969 565.980469 C 497.015625 584.898438 497.105469 603.589844 499.941406 621.550781 C 511.585938 695.292969 569.394531 756.425781 647.121094 768.835938 C 666.03125 771.847656 684.75 771.746094 702.71875 768.910156 C 776.507812 757.261719 837.683594 699.472656 850.097656 621.773438 C 853.128906 602.871094 853.03125 584.160156 850.195312 566.203125 C 838.558594 492.476562 780.746094 431.34375 703.019531 418.929688 L 701.964844 425.550781 L 700.910156 432.152344 C 772.765625 443.585938 826.203125 500.15625 836.976562 568.289062 C 839.597656 584.890625 839.679688 602.171875 836.886719 619.679688 C 825.433594 691.5 768.828125 744.933594 700.632812 755.699219 C 684.042969 758.320312 666.75 758.40625 649.234375 755.617188 C 577.375 744.183594 523.9375 687.613281 513.160156 619.460938 C 510.542969 602.878906 510.460938 585.597656 513.253906 568.089844 C 524.707031 496.269531 581.3125 442.835938 649.507812 432.070312 C 666.101562 429.449219 683.390625 429.347656 700.910156 432.152344 L 701.964844 425.550781 "/>
</g>
</g>
</g>
</g>
</g>
</svg>
